0e ` ~
16 1 !
1e 2 @
26 3 #
25 4 $
2e 5 % E
36 6 ^
3d 7 &
3e 8 *
46 9 (
45 0 )
4e - _
55 = +
66 Backspace
0d Tab
15 Q
1d W
24 E
2d R
2c T
35 Y
3c U
43 I
44 O
4d P
54 [ {
5b ] }
5c \ |
14 CapsLock
1c A
1b S
23 D
2b F
34 G
33 H
3b J
42 K
4b L
4c ; :
52 ' "
00 non-US-1
5a Enter
12 LShift
1a Z
22 X
21 C
2a V
32 B
31 N
3a M
41 , <
49 . >
4a / ?
59 RShift
11 LCtrl
19 LAlt
29 space
76 Esc
05 F1
06 F2
04 F3
0c F4
03 F5
0b F6
83 F7
0a F8
01 F9
09 F10
78 F11
07 F12

